Altium Designer Pick and Place Locations
S:\elec\CAO\CLIENT\INPG\IVC_ED1_CARTE_4U\PROJET_4U\FAB\Pick Place\IVC_ED1.csv

========================================================================================================================
File Design Information:

Date:       29/05/19
Time:       13:19
Revision:   Not in VersionControl
Variant:    No variations
Units used: mm

"Designator","Comment","Layer","Footprint","Center-X(mm)","Center-Y(mm)","Rotation","Description"
"D2","D Schottky","TopLayer","DIO_SMA_403D-02","5.2500","17.0000","360","Zener Schottky"
"D1","D Schottky","TopLayer","DIO_SMA_403D-02","21.0000","16.5000","360","Zener Schottky"
"C14","CAP_POL_2","TopLayer","CAPPR2-8x15","6.2500","24.2500","360","Metal Film, Cylindrical Resistors"
"C13","CAP_POL_2","TopLayer","CAPPR2-8x15","12.7500","18.5000","360","Metal Film, Cylindrical Resistors"
"U4","ADA4700-1","TopLayer","SOIC8_L_-_THPAD","31.7500","63.0000","90","High Voltage, Precision  Operational Amplifie"
"U3","ADA4700-1","TopLayer","SOIC8_L_-_THPAD","27.7500","39.5000","90","High Voltage, Precision  Operational Amplifie"
"U2","ADA4700-1","TopLayer","SOIC8_L_-_THPAD","15.2500","63.0000","90","High Voltage, Precision  Operational Amplifie"
"U1","ADA4700-1","TopLayer","SOIC8_L_-_THPAD","12.0000","39.5000","90","High Voltage, Precision  Operational Amplifie"
"R12","RES","TopLayer","1206","33.7500","24.8500","90",""
"R11","RES","TopLayer","1206","27.2500","59.6000","90",""
"R10","RES","TopLayer","1206","31.0000","53.6000","90",""
"R9","RES","TopLayer","1206","25.2500","24.8500","90",""
"R8","RES","TopLayer","1206","23.2500","38.8500","90",""
"R7","RES","TopLayer","1206","23.2500","32.1000","90",""
"R6","RES","TopLayer","1206","16.5000","24.8500","90",""
"R5","RES","TopLayer","1206","10.7500","59.6000","90",""
"R4","RES","TopLayer","1206","14.5000","54.1000","90",""
"R3","RES","TopLayer","1206","14.1500","32.0000","180",""
"R2","RES","TopLayer","1206","7.5000","39.1000","90",""
"R1","RES","TopLayer","1206","7.5000","31.6000","90",""
"P3","CON 5","TopLayer","FCI_5PTS_VERTICAL_3.5mm","21.0000","93.5000","360","Header, 5-Pin"
"P2","CON 5","TopLayer","FCI_5PTS_VERTICAL_3.5mm","30.2500","10.0000","180","Header, 5-Pin"
"C12","CAP805","TopLayer","1206","36.2500","61.6000","90",""
"C11","CAP_POL_2","TopLayer","CAPPR2-5x6.8","38.5000","25.5000","90","Metal Film, Cylindrical Resistors"
"C10","CAP805","TopLayer","1206","29.5000","71.1500","270",""
"C9","CAP805","TopLayer","1206","32.5000","38.1000","90",""
"C8","CAP_POL_2","TopLayer","CAPPR2-5x6.8","29.5000","25.5000","90","Metal Film, Cylindrical Resistors"
"C7","CAP805","TopLayer","1206","25.7500","47.4000","270",""
"C6","CAP805","TopLayer","1206","20.2500","61.8500","90",""
"C5","CAP_POL_2","TopLayer","CAPPR2-5x6.8","21.0000","25.5000","90","Metal Film, Cylindrical Resistors"
"C4","CAP805","TopLayer","1206","12.5000","71.1500","270",""
"C3","CAP805","TopLayer","1206","16.7500","38.3500","90",""
"C2","CAP_POL_2","TopLayer","CAPPR2-5x6.8","12.5000","27.5000","90","Metal Film, Cylindrical Resistors"
"C1","CAP805","TopLayer","1206","9.7500","47.4000","270",""
"P1","CON 3","TopLayer","FCI_3PTS_VERTICAL_3.5mm","10.2500","10.0000","180","Header, 3-Pin"
